{"photos":{"page":1,"pages":39078,"perpage":15,"total":586170,"photo":[{"id":"51702034513","owner":"10201087@N03","secret":"c5e0ff660c","server":"65535","farm":66,"title":"","ispublic":1,"isfriend":0,"isfamily":0},{"id":"51702032258","owner":"155345849@N03","secret":"bc98c8d55e","server":"65535","farm":66,"title":"photo_2021-11-24_14-22-10","ispublic":1,"isfriend":0,"isfamily":0},{"id":"51700951807","owner":"155345849@N03","secret":"4b65640ba7","server":"65535","farm":66,"title":"photo_2021-11-24_14-22-11","ispublic":1,"isfriend":0,"isfamily":0},{"id":"51702638070","owner":"155345849@N03","secret":"9ff3186170","server":"65535","farm":66,"title":"photo_2021-11-24_14-22-13 (2)","ispublic":1,"isfriend":0,"isfamily":0},{"id":"51702032208","owner":"155345849@N03","secret":"c5cac0ed95","server":"65535","farm":66,"title":"photo_2021-11-24_14-22-12","ispublic":1,"isfriend":0,"isfamily":0},{"id":"51702638060","owner":"155345849@N03","secret":"8fa71c0ec5","server":"65535","farm":66,"title":"photo_2021-11-24_14-22-13","ispublic":1,"isfriend":0,"isfamily":0},{"id":"51700951772","owner":"155345849@N03","secret":"ea9fd05dbf","server":"65535","farm":66,"title":"photo_2021-11-24_14-22-14","ispublic":1,"isfriend":0,"isfamily":0},{"id":"51702424564","owner":"76033499@N00","secret":"2d600f7089","server":"65535","farm":66,"title":"Hamadryas belladonna","ispublic":1,"isfriend":0,"isfamily":0},{"id":"51702027733","owner":"130418718@N07","secret":"12d1aee39f","server":"65535","farm":66,"title":"PHOTOS _2","ispublic":1,"isfriend":0,"isfamily":0},{"id":"51702027738","owner":"130418718@N07","secret":"cc4961eee5","server":"65535","farm":66,"title":"PHOTOS _3","ispublic":1,"isfriend":0,"isfamily":0},{"id":"51702027748","owner":"130418718@N07","secret":"069192ecd1","server":"65535","farm":66,"title":"PHOTOS _1","ispublic":1,"isfriend":0,"isfamily":0},{"id":"51700947322","owner":"130418718@N07","secret":"b88155f354","server":"65535","farm":66,"title":"PHOTOS _4","ispublic":1,"isfriend":0,"isfamily":0},{"id":"51702633235","owner":"130418718@N07","secret":"b125b973e2","server":"65535","farm":66,"title":"PHOTOS _6","ispublic":1,"isfriend":0,"isfamily":0},{"id":"51701747286","owner":"130418718@N07","secret":"949feb8a62","server":"65535","farm":66,"title":"PHOTOS _5","ispublic":1,"isfriend":0,"isfamily":0},{"id":"51702633205","owner":"130418718@N07","secret":"1a5edb7857","server":"65535","farm":66,"title":"PHOTOS _7","ispublic":1,"isfriend":0,"isfamily":0}]},"stat":"ok"}
